%!PS-Adobe-2.0 EPSF-2.0
%%Title: dabild03.eps
%%Creator: fig2dev Version 3.2 Patchlevel 1
%%CreationDate: Mon May  5 08:36:15 2003
%%For: mueller@paxp17.mipool.uni-jena.de (Thomas Mueller)
%%Orientation: Portrait
%%BoundingBox: 0 0 704 290
%%Pages: 0
%%BeginSetup
%%EndSetup
%%Magnification: 1.0000
%%EndComments
/$F2psDict 200 dict def
$F2psDict begin
$F2psDict /mtrx matrix put
/col-1 {0 setgray} bind def
/col0 {0.000 0.000 0.000 srgb} bind def
/col1 {0.000 0.000 1.000 srgb} bind def
/col2 {0.000 1.000 0.000 srgb} bind def
/col3 {0.000 1.000 1.000 srgb} bind def
/col4 {1.000 0.000 0.000 srgb} bind def
/col5 {1.000 0.000 1.000 srgb} bind def
/col6 {1.000 1.000 0.000 srgb} bind def
/col7 {1.000 1.000 1.000 srgb} bind def
/col8 {0.000 0.000 0.560 srgb} bind def
/col9 {0.000 0.000 0.690 srgb} bind def
/col10 {0.000 0.000 0.820 srgb} bind def
/col11 {0.530 0.810 1.000 srgb} bind def
/col12 {0.000 0.560 0.000 srgb} bind def
/col13 {0.000 0.690 0.000 srgb} bind def
/col14 {0.000 0.820 0.000 srgb} bind def
/col15 {0.000 0.560 0.560 srgb} bind def
/col16 {0.000 0.690 0.690 srgb} bind def
/col17 {0.000 0.820 0.820 srgb} bind def
/col18 {0.560 0.000 0.000 srgb} bind def
/col19 {0.690 0.000 0.000 srgb} bind def
/col20 {0.820 0.000 0.000 srgb} bind def
/col21 {0.560 0.000 0.560 srgb} bind def
/col22 {0.690 0.000 0.690 srgb} bind def
/col23 {0.820 0.000 0.820 srgb} bind def
/col24 {0.500 0.190 0.000 srgb} bind def
/col25 {0.630 0.250 0.000 srgb} bind def
/col26 {0.750 0.380 0.000 srgb} bind def
/col27 {1.000 0.500 0.500 srgb} bind def
/col28 {1.000 0.630 0.630 srgb} bind def
/col29 {1.000 0.750 0.750 srgb} bind def
/col30 {1.000 0.880 0.880 srgb} bind def
/col31 {1.000 0.840 0.000 srgb} bind def

end
save
-35.0 352.0 translate
1 -1 scale

/cp {closepath} bind def
/ef {eofill} bind def
/gr {grestore} bind def
/gs {gsave} bind def
/sa {save} bind def
/rs {restore} bind def
/l {lineto} bind def
/m {moveto} bind def
/rm {rmoveto} bind def
/n {newpath} bind def
/s {stroke} bind def
/sh {show} bind def
/slc {setlinecap} bind def
/slj {setlinejoin} bind def
/slw {setlinewidth} bind def
/srgb {setrgbcolor} bind def
/rot {rotate} bind def
/sc {scale} bind def
/sd {setdash} bind def
/ff {findfont} bind def
/sf {setfont} bind def
/scf {scalefont} bind def
/sw {stringwidth} bind def
/tr {translate} bind def
/tnt {dup dup currentrgbcolor
  4 -2 roll dup 1 exch sub 3 -1 roll mul add
  4 -2 roll dup 1 exch sub 3 -1 roll mul add
  4 -2 roll dup 1 exch sub 3 -1 roll mul add srgb}
  bind def
/shd {dup dup currentrgbcolor 4 -2 roll mul 4 -2 roll mul
  4 -2 roll mul srgb} bind def
/reencdict 12 dict def /ReEncode { reencdict begin
/newcodesandnames exch def /newfontname exch def /basefontname exch def
/basefontdict basefontname findfont def /newfont basefontdict maxlength dict def
basefontdict { exch dup /FID ne { dup /Encoding eq
{ exch dup length array copy newfont 3 1 roll put }
{ exch newfont 3 1 roll put } ifelse } { pop pop } ifelse } forall
newfont /FontName newfontname put newcodesandnames aload pop
128 1 255 { newfont /Encoding get exch /.notdef put } for
newcodesandnames length 2 idiv { newfont /Encoding get 3 1 roll put } repeat
newfontname newfont definefont pop end } def
/isovec [
8#200 /grave 8#201 /acute 8#202 /circumflex 8#203 /tilde
8#204 /macron 8#205 /breve 8#206 /dotaccent 8#207 /dieresis
8#210 /ring 8#211 /cedilla 8#212 /hungarumlaut 8#213 /ogonek 8#214 /caron
8#220 /dotlessi 8#230 /oe 8#231 /OE
8#240 /space 8#241 /exclamdown 8#242 /cent 8#243 /sterling
8#244 /currency 8#245 /yen 8#246 /brokenbar 8#247 /section 8#250 /dieresis
8#251 /copyright 8#252 /ordfeminine 8#253 /guillemotleft 8#254 /logicalnot
8#255 /endash 8#256 /registered 8#257 /macron 8#260 /degree 8#261 /plusminus
8#262 /twosuperior 8#263 /threesuperior 8#264 /acute 8#265 /mu 8#266 /paragraph
8#267 /periodcentered 8#270 /cedilla 8#271 /onesuperior 8#272 /ordmasculine
8#273 /guillemotright 8#274 /onequarter 8#275 /onehalf
8#276 /threequarters 8#277 /questiondown 8#300 /Agrave 8#301 /Aacute
8#302 /Acircumflex 8#303 /Atilde 8#304 /Adieresis 8#305 /Aring
8#306 /AE 8#307 /Ccedilla 8#310 /Egrave 8#311 /Eacute
8#312 /Ecircumflex 8#313 /Edieresis 8#314 /Igrave 8#315 /Iacute
8#316 /Icircumflex 8#317 /Idieresis 8#320 /Eth 8#321 /Ntilde 8#322 /Ograve
8#323 /Oacute 8#324 /Ocircumflex 8#325 /Otilde 8#326 /Odieresis 8#327 /multiply
8#330 /Oslash 8#331 /Ugrave 8#332 /Uacute 8#333 /Ucircumflex
8#334 /Udieresis 8#335 /Yacute 8#336 /Thorn 8#337 /germandbls 8#340 /agrave
8#341 /aacute 8#342 /acircumflex 8#343 /atilde 8#344 /adieresis 8#345 /aring
8#346 /ae 8#347 /ccedilla 8#350 /egrave 8#351 /eacute
8#352 /ecircumflex 8#353 /edieresis 8#354 /igrave 8#355 /iacute
8#356 /icircumflex 8#357 /idieresis 8#360 /eth 8#361 /ntilde 8#362 /ograve
8#363 /oacute 8#364 /ocircumflex 8#365 /otilde 8#366 /odieresis 8#367 /divide
8#370 /oslash 8#371 /ugrave 8#372 /uacute 8#373 /ucircumflex
8#374 /udieresis 8#375 /yacute 8#376 /thorn 8#377 /ydieresis] def
/Times-Roman /Times-Roman-iso isovec ReEncode
 /DrawEllipse {
	/endangle exch def
	/startangle exch def
	/yrad exch def
	/xrad exch def
	/y exch def
	/x exch def
	/savematrix mtrx currentmatrix def
	x y tr xrad yrad sc 0 0 1 startangle endangle arc
	closepath
	savematrix setmatrix
	} def

/$F2psBegin {$F2psDict begin /$F2psEnteredState save def} def
/$F2psEnd {$F2psEnteredState restore end} def
%%EndProlog

$F2psBegin
10 setmiterlimit
n -1000 6862 m -1000 -1000 l 13312 -1000 l 13312 6862 l cp clip
 0.06000 0.06000 sc
/Times-Roman-iso ff 180.00 scf sf
997 4836 m
gs 1 -1 sc (administrator) col0 sh gr
% Polyline
7.500 slw
n 600 4200 m 2400 4200 l 2400 5100 l 600 5100 l cp gs col0 s gr 
% Polyline
n 10500 4200 m 12300 4200 l 12300 5100 l 10500 5100 l cp gs col0 s gr 
/Times-Roman-iso ff 180.00 scf sf
10957 4702 m
gs 1 -1 sc (Quellserver) col0 sh gr
/Times-Roman-iso ff 180.00 scf sf
4432 2189 m
gs 1 -1 sc (Synchronisations-) col0 sh gr
/Times-Roman-iso ff 180.00 scf sf
4680 2414 m
gs 1 -1 sc (komponente) col0 sh gr
% Ellipse
n 5137 2250 750 750 0 360 DrawEllipse gs col0 s gr

/Times-Roman-iso ff 180.00 scf sf
4740 4612 m
gs 1 -1 sc (Dienste-) col0 sh gr
/Times-Roman-iso ff 180.00 scf sf
4875 4837 m
gs 1 -1 sc (modul) col0 sh gr
% Ellipse
n 5100 4650 742 742 0 360 DrawEllipse gs col0 s gr

/Times-Roman-iso ff 180.00 scf sf
7379 4462 m
gs 1 -1 sc (Modul zum) col0 sh gr
/Times-Roman-iso ff 180.00 scf sf
7259 4664 m
gs 1 -1 sc (Datenabgleich) col0 sh gr
/Times-Roman-iso ff 180.00 scf sf
7357 4911 m
gs 1 -1 sc (mit dem QS) col0 sh gr
% Ellipse
n 7800 4650 765 765 0 360 DrawEllipse gs col0 s gr

% Ellipse
n 7800 2250 754 754 0 360 DrawEllipse gs col0 s gr

/Times-Roman-iso ff 180.00 scf sf
967 4611 m
gs 1 -1 sc (Replikations-) col0 sh gr
/Times-Roman-iso ff 180.00 scf sf
7395 2317 m
gs 1 -1 sc (RPS-DBS) col0 sh gr
/Times-Roman-iso ff 180.00 scf sf
8775 5700 m
gs 1 -1 sc (RPS) col0 sh gr
/Times-Roman-iso ff 180.00 scf sf
1222 2362 m
gs 1 -1 sc (mobiler) col0 sh gr
/Times-Roman-iso ff 180.00 scf sf
1275 2587 m
gs 1 -1 sc (Client) col0 sh gr
% Polyline
n 600 1950 m 2400 1950 l 2400 2850 l 600 2850 l cp gs col0 s gr 
% Polyline
n 750 1950 m 750 1800 l 2550 1800 l 2550 2700 l 2400 2700 l gs col0 s gr 
% Polyline
n 900 1800 m 900 1650 l 2700 1650 l 2700 2550 l 2550 2550 l gs col0 s gr 
% Polyline
gs  clippath
4230 2220 m 4350 2250 l 4230 2280 l 4365 2280 l 4365 2220 l cp
2520 2280 m 2400 2250 l 2520 2220 l 2385 2220 l 2385 2280 l cp
clip
n 2400 2250 m 4350 2250 l gs col0 s gr gr

% arrowhead
n 2520 2280 m 2400 2250 l 2520 2220 l 2520 2250 l 2520 2280 l  cp gs 0.00 setgray ef gr  col0 s
% arrowhead
n 4230 2220 m 4350 2250 l 4230 2280 l 4230 2250 l 4230 2220 l  cp gs 0.00 setgray ef gr  col0 s
% Polyline
gs  clippath
6930 2220 m 7050 2250 l 6930 2280 l 7065 2280 l 7065 2220 l cp
6045 2280 m 5925 2250 l 6045 2220 l 5910 2220 l 5910 2280 l cp
clip
n 5925 2250 m 7050 2250 l gs col0 s gr gr

% arrowhead
n 6045 2280 m 5925 2250 l 6045 2220 l 6045 2250 l 6045 2280 l  cp gs 0.00 setgray ef gr  col0 s
% arrowhead
n 6930 2220 m 7050 2250 l 6930 2280 l 6930 2250 l 6930 2220 l  cp gs 0.00 setgray ef gr  col0 s
% Polyline
gs  clippath
5070 3120 m 5100 3000 l 5130 3120 l 5130 2985 l 5070 2985 l cp
5130 3780 m 5100 3900 l 5070 3780 l 5070 3915 l 5130 3915 l cp
clip
n 5100 3900 m 5100 3000 l gs col0 s gr gr

% arrowhead
n 5130 3780 m 5100 3900 l 5070 3780 l 5100 3780 l 5130 3780 l  cp gs 0.00 setgray ef gr  col0 s
% arrowhead
n 5070 3120 m 5100 3000 l 5130 3120 l 5100 3120 l 5070 3120 l  cp gs 0.00 setgray ef gr  col0 s
% Polyline
gs  clippath
7830 3780 m 7800 3900 l 7770 3780 l 7770 3915 l 7830 3915 l cp
7770 3120 m 7800 3000 l 7830 3120 l 7830 2985 l 7770 2985 l cp
clip
n 7800 3000 m 7800 3900 l gs col0 s gr gr

% arrowhead
n 7770 3120 m 7800 3000 l 7830 3120 l 7800 3120 l 7770 3120 l  cp gs 0.00 setgray ef gr  col0 s
% arrowhead
n 7830 3780 m 7800 3900 l 7770 3780 l 7800 3780 l 7830 3780 l  cp gs 0.00 setgray ef gr  col0 s
% Polyline
gs  clippath
6930 4620 m 7050 4650 l 6930 4680 l 7065 4680 l 7065 4620 l cp
5970 4680 m 5850 4650 l 5970 4620 l 5835 4620 l 5835 4680 l cp
clip
n 5850 4650 m 7050 4650 l gs col0 s gr gr

% arrowhead
n 5970 4680 m 5850 4650 l 5970 4620 l 5970 4650 l 5970 4680 l  cp gs 0.00 setgray ef gr  col0 s
% arrowhead
n 6930 4620 m 7050 4650 l 6930 4680 l 6930 4650 l 6930 4620 l  cp gs 0.00 setgray ef gr  col0 s
% Polyline
gs  clippath
5809 4142 m 5700 4200 l 5769 4097 l 5669 4188 l 5709 4232 l cp
7166 2833 m 7275 2775 l 7206 2878 l 7306 2787 l 7266 2743 l cp
clip
n 7275 2775 m 5700 4200 l gs col0 s gr gr

% arrowhead
n 7166 2833 m 7275 2775 l 7206 2878 l 7186 2856 l 7166 2833 l  cp gs 0.00 setgray ef gr  col0 s
% arrowhead
n 5809 4142 m 5700 4200 l 5769 4097 l 5789 4119 l 5809 4142 l  cp gs 0.00 setgray ef gr  col0 s
% Polyline
gs  clippath
4230 4620 m 4350 4650 l 4230 4680 l 4365 4680 l 4365 4620 l cp
2520 4680 m 2400 4650 l 2520 4620 l 2385 4620 l 2385 4680 l cp
clip
n 2400 4650 m 4350 4650 l gs col0 s gr gr

% arrowhead
n 2520 4680 m 2400 4650 l 2520 4620 l 2520 4650 l 2520 4680 l  cp gs 0.00 setgray ef gr  col0 s
% arrowhead
n 4230 4620 m 4350 4650 l 4230 4680 l 4230 4650 l 4230 4620 l  cp gs 0.00 setgray ef gr  col0 s
% Polyline
gs  clippath
4424 4102 m 4500 4200 l 4387 4149 l 4493 4233 l 4530 4186 l cp
2476 2648 m 2400 2550 l 2513 2601 l 2407 2517 l 2370 2564 l cp
clip
n 2400 2550 m 4500 4200 l gs col0 s gr gr

% arrowhead
n 2476 2648 m 2400 2550 l 2513 2601 l 2494 2624 l 2476 2648 l  cp gs 0.00 setgray ef gr  col0 s
% arrowhead
n 4424 4102 m 4500 4200 l 4387 4149 l 4406 4126 l 4424 4102 l  cp gs 0.00 setgray ef gr  col0 s
% Polyline
gs  clippath
10380 4620 m 10500 4650 l 10380 4680 l 10515 4680 l 10515 4620 l cp
8670 4680 m 8550 4650 l 8670 4620 l 8535 4620 l 8535 4680 l cp
clip
n 8550 4650 m 10500 4650 l gs col0 s gr gr

% arrowhead
n 8670 4680 m 8550 4650 l 8670 4620 l 8670 4650 l 8670 4680 l  cp gs 0.00 setgray ef gr  col0 s
% arrowhead
n 10380 4620 m 10500 4650 l 10380 4680 l 10380 4650 l 10380 4620 l  cp gs 0.00 setgray ef gr  col0 s
% Polyline
 [60] 0 sd
n 9300 5850 m 3600 5850 l 3600 1050 l 9300 1050 l cp gs col0 s gr  [] 0 sd
$F2psEnd
rs
